{
    "message": "ok",
    "total_records": 37,
    "total_pages": 4,
    "previous": null,
    "next": "https://www.swapi.tech/api/species?page=2&limit=10",
    "results": [
        {
            "uid": "1",
            "name": "Human",
            "url": "https://www.swapi.tech/api/species/1"
        },
        {
            "uid": "2",
            "name": "Droid",
            "url": "https://www.swapi.tech/api/species/2"
        },
        {
            "uid": "3",
            "name": "Wookie",
            "url": "https://www.swapi.tech/api/species/3"
        },
        {
            "uid": "4",
            "name": "Rodian",
            "url": "https://www.swapi.tech/api/species/4"
        },
        {
            "uid": "5",
            "name": "Hutt",
            "url": "https://www.swapi.tech/api/species/5"
        },
        {
            "uid": "6",
            "name": "Yoda's species",
            "url": "https://www.swapi.tech/api/species/6"
        },
        {
            "uid": "7",
            "name": "Trandoshan",
            "url": "https://www.swapi.tech/api/species/7"
        },
        {
            "uid": "8",
            "name": "Mon Calamari",
            "url": "https://www.swapi.tech/api/species/8"
        },
        {
            "uid": "9",
            "name": "Ewok",
            "url": "https://www.swapi.tech/api/species/9"
        },
        {
            "uid": "10",
            "name": "Sullustan",
            "url": "https://www.swapi.tech/api/species/10"
        }
    ]
}